name,price
Josephine Wilkins,82904
Josephine Wilkins,150
Devin Torres,15358
Devin Torres,15
Josie Byrd,19657
Peter Miles,25962
Delia Maxwell,62318
Devin Torres,19
Lois Welch,7021
Lenora Abbott,2897
Jordan Malone,29461
Adelaide Ball,37847
Caleb Ross,95707
